[
    {
        "id":132423,
        "idea":"A website that people can share their ideas on for other people!",
        "tags":["social","ideas"],
        "user":"Alireza",
        "sidenotes":"",
        "publish_date":77323,
        "reactions":["😂","🚀","🔮"]
    },
    {
        "id":122423,
        "idea":"An app where u put all your invite codes and friends can check up when signing up on something",
        "tags":["social","environment"],
        "user":"Alireza",
        "sidenotes":"",
        "publish_date":77323,
        "reactions":["😂","🚀","🔮"]
    },
    {
        "id":132453,
        "idea":"ESPORTS website like varzesh3 + bet",
        "tags":["gaming","bet"],
        "user":"Alireza",
        "sidenotes":"",
        "publish_date":77323,
        "reactions":["😂"]
    },
     {
        "id":132423,
        "idea":"A website that people can share their ideas on for other people!",
        "tags":["social","ideas"],
        "user":"Alireza",
        "sidenotes":"",
        "publish_date":77323,
        "reactions":["😂","🚀","🔮"]
    },
    {
        "id":122423,
        "idea":"An app where u put all your invite codes and friends can check up when signing up on something",
        "tags":["social","environment"],
        "user":"Alireza",
        "sidenotes":"",
        "publish_date":77323,
        "reactions":["😂","🚀","🔮"]
    },
    {
        "id":132453,
        "idea":"ESPORTS website like varzesh3 + bet",
        "tags":["gaming","bet"],
        "user":"Alireza",
        "sidenotes":"",
        "publish_date":77323,
        "reactions":["😂","🚀","🔮"]
    }
]